…
### 4.4 Words in Topics

The `get_topics_df()` function concentrates on the words associated with
a certain topic and their probability scores. The outliers (Topic = -1)
usually are not included in the analysis. But BERTopic offers a function
to reduce the number of outliers and to update the topic model.

Show the code

``` r
topics_df <- get_topics_df(model = topic_model)
head(topics_df, 30)
```

    # A tibble: 30 × 3
       Word          Score Topic
       <chr>         <dbl> <dbl>
     1 menschen    0.0149     -1
     2 deutschland 0.0132     -1
     3 deutschen   0.0101     -1
     4 leben       0.00911    -1
     5 welt        0.00864    -1
     6 leute       0.00825    -1
     7 gut         0.00799    -1
     8 zeit        0.00799    -1
     9 gerade      0.00780    -1
    10 deutsche    0.00735    -1
    # ℹ 20 more rows
…
